<?xml version="1.0" encoding="UTF-8" standalone="no"?>
<svg width="667px" height="254px" viewBox="0 0 667 254" version="1.1" xmlns="http://www.w3.org/2000/svg" xmlns:xlink="http://www.w3.org/1999/xlink">
    <!-- Generator: sketchtool 40.2 (33826) - http://www.bohemiancoding.com/sketch -->
    <title>55283BB7-91A7-4796-8BBB-B8D4ABAB5A1D</title>
    <desc>Created with sketchtool.</desc>
    <defs>
        <path d="M29.0425532,33.7657416 L163.831191,33.7657416 C172.05686,33.7657416 178.723404,27.102012 178.723404,18.881885 L178.723404,14.8838566 C178.723404,6.67102398 172.055933,0 163.831191,0 L14.8922129,0 C6.66654436,0 0,6.6637296 0,14.8838566 L0,18.881885 C0,27.0947176 6.66747084,33.7657416 14.8922129,33.7657416 L14.893617,48.0223881 L29.0425532,33.7657416 Z" id="path-1"></path>
        <filter x="-50%" y="-50%" width="200%" height="200%" filterUnits="objectBoundingBox" id="filter-2">
            <feOffset dx="0" dy="3" in="SourceAlpha" result="shadowOffsetOuter1"></feOffset>
            <feGaussianBlur stdDeviation="2" in="shadowOffsetOuter1" result="shadowBlurOuter1"></feGaussianBlur>
            <feColorMatrix values="0 0 0 0 0   0 0 0 0 0   0 0 0 0 0  0 0 0 0.200067935 0" type="matrix" in="shadowBlurOuter1"></feColorMatrix>
        </filter>
        <path d="M29.06474,128.743354 L124.464077,128.743354 C132.686948,128.743354 139.361702,122.079624 139.361702,113.859497 L139.361702,109.861469 C139.361702,101.648636 132.691808,94.9776119 124.464077,94.9776119 L14.8976252,94.9776119 C6.67475411,94.9776119 0,101.641342 0,109.861469 L0,113.859497 C0,122.07233 6.66989399,128.743354 14.8976252,128.743354 L14.9049949,143 L29.06474,128.743354 Z" id="path-3"></path>
        <filter x="-50%" y="-50%" width="200%" height="200%" filterUnits="objectBoundingBox" id="filter-4">
            <feOffset dx="0" dy="3" in="SourceAlpha" result="shadowOffsetOuter1"></feOffset>
            <feGaussianBlur stdDeviation="2" in="shadowOffsetOuter1" result="shadowBlurOuter1"></feGaussianBlur>
            <feColorMatrix values="0 0 0 0 0   0 0 0 0 0   0 0 0 0 0  0 0 0 0.200067935 0" type="matrix" in="shadowBlurOuter1"></feColorMatrix>
        </filter>
        <path d="M185.146528,81.7880561 C193.360823,81.7625521 200,75.1086279 200,66.904273 L200,62.9062447 C200,54.693412 193.328656,48.0223881 185.099136,48.0223881 L57.4540553,48.0223881 C49.2179194,48.0223881 42.5531915,54.6861177 42.5531915,62.9062447 L42.5531915,66.904273 C42.5531915,75.1171057 49.2245355,81.7881297 57.4540553,81.7881297 L171.035729,81.7881297 L185.146527,96.0447761 L185.146527,81.7880614 Z" id="path-5"></path>
        <filter x="-50%" y="-50%" width="200%" height="200%" filterUnits="objectBoundingBox" id="filter-6">
            <feOffset dx="0" dy="3" in="SourceAlpha" result="shadowOffsetOuter1"></feOffset>
            <feGaussianBlur stdDeviation="2" in="shadowOffsetOuter1" result="shadowBlurOuter1"></feGaussianBlur>
            <feColorMatrix values="0 0 0 0 0   0 0 0 0 0   0 0 0 0 0  0 0 0 0.200067935 0" type="matrix" in="shadowBlurOuter1"></feColorMatrix>
        </filter>
        <rect id="path-7" x="0" y="0" width="200" height="243" rx="5"></rect>
        <filter x="-50%" y="-50%" width="200%" height="200%" filterUnits="objectBoundingBox" id="filter-8">
            <feOffset dx="0" dy="3" in="SourceAlpha" result="shadowOffsetOuter1"></feOffset>
            <feGaussianBlur stdDeviation="2" in="shadowOffsetOuter1" result="shadowBlurOuter1"></feGaussianBlur>
            <feColorMatrix values="0 0 0 0 0   0 0 0 0 0   0 0 0 0 0  0 0 0 0.200067935 0" type="matrix" in="shadowBlurOuter1"></feColorMatrix>
        </filter>
        <ellipse id="path-9" cx="50" cy="50" rx="50" ry="50"></ellipse>
        <filter x="-50%" y="-50%" width="200%" height="200%" filterUnits="objectBoundingBox" id="filter-10">
            <feOffset dx="0" dy="3" in="SourceAlpha" result="shadowOffsetOuter1"></feOffset>
            <feGaussianBlur stdDeviation="2" in="shadowOffsetOuter1" result="shadowBlurOuter1"></feGaussianBlur>
            <feColorMatrix values="0 0 0 0 0   0 0 0 0 0   0 0 0 0 0  0 0 0 0.201681386 0" type="matrix" in="shadowBlurOuter1"></feColorMatrix>
        </filter>
        <polygon id="path-11" points="447 218.040501 415 190 415 233.62313 424.076062 222.243539 432.004784 240 440.747228 235.742709 432.818368 217.986392"></polygon>
        <filter x="-50%" y="-50%" width="200%" height="200%" filterUnits="objectBoundingBox" id="filter-12">
            <feOffset dx="0" dy="3" in="SourceAlpha" result="shadowOffsetOuter1"></feOffset>
            <feGaussianBlur stdDeviation="2" in="shadowOffsetOuter1" result="shadowBlurOuter1"></feGaussianBlur>
            <feColorMatrix values="0 0 0 0 0   0 0 0 0 0   0 0 0 0 0  0 0 0 0.200067935 0" type="matrix" in="shadowBlurOuter1"></feColorMatrix>
        </filter>
    </defs>
    <g id="Landing-v2" stroke="none" stroke-width="1" fill="none" fill-rule="evenodd">
        <g id="Landing" transform="translate(-96.000000, -1366.000000)">
            <g id="Group-17" transform="translate(96.000000, 1366.000000)">
                <g id="Group-5" transform="translate(4.000000, 1.000000)">
                    <g id="Group" transform="translate(0.000000, 40.000000)">
                        <g id="Combined-Shape">
                            <use fill="black" fill-opacity="1" filter="url(#filter-2)" xlink:href="#path-1"></use>
                            <use fill="#C9E7FF" fill-rule="evenodd" xlink:href="#path-1"></use>
                        </g>
                        <g id="Combined-Shape-Copy">
                            <use fill="black" fill-opacity="1" filter="url(#filter-4)" xlink:href="#path-3"></use>
                            <use fill="#C9E7FF" fill-rule="evenodd" xlink:href="#path-3"></use>
                        </g>
                        <g id="Combined-Shape-Copy-2">
                            <use fill="black" fill-opacity="1" filter="url(#filter-6)" xlink:href="#path-5"></use>
                            <use fill="#FFDF9E" fill-rule="evenodd" xlink:href="#path-5"></use>
                        </g>
                    </g>
                    <g id="Group-3" transform="translate(269.000000, 1.000000)">
                        <g id="Rectangle-3">
                            <use fill="black" fill-opacity="1" filter="url(#filter-8)" xlink:href="#path-7"></use>
                            <use fill="#FFF1D5" fill-rule="evenodd" xlink:href="#path-7"></use>
                        </g>
                        <g id="Group-2" transform="translate(35.000000, 170.000000)">
                            <rect id="Rectangle-4" fill="#AAE5AB" x="0" y="0" width="130" height="43" rx="5"></rect>
                            <text id="Buy" font-family="OpenSans-Bold, Open Sans" font-size="18" font-weight="bold" fill="#FFFFFF">
                                <tspan x="48" y="28">Buy</tspan>
                            </text>
                        </g>
                        <rect id="Rectangle-5" fill="#FFFFFF" x="25" y="65" width="150" height="25" rx="12.5"></rect>
                        <rect id="Rectangle-5-Copy-2" fill="#ADADAD" x="75" y="25" width="100" height="15" rx="7.5"></rect>
                        <rect id="Rectangle-5-Copy" fill="#FFFFFF" x="25" y="115" width="150" height="25" rx="12.5"></rect>
                    </g>
                    <g id="Group-4" transform="translate(559.000000, 73.000000)">
                        <g id="Oval">
                            <use fill="black" fill-opacity="1" filter="url(#filter-10)" xlink:href="#path-9"></use>
                            <use fill="#A0E5A1" fill-rule="evenodd" xlink:href="#path-9"></use>
                        </g>
                        <polyline id="Path-2" stroke="#FFFFFF" stroke-width="8.95348837" points="29 43.5813953 47.6603774 68 72 33"></polyline>
                    </g>
                    <path d="M253.708508,227.330867 C253.708508,227.330867 208.212745,260.381868 168.740844,249.377234 C129.268942,238.372601 120.112977,190.084883 120.112977,190.084883" id="Line" stroke="#979797" stroke-width="2" stroke-linecap="square" stroke-dasharray="14,1,1"></path>
                    <path d="M482.5,21.5 C482.5,21.5 524.556394,-8.21141426 559.261508,2.67445313 C593.966622,13.5603205 599.792422,59.4034688 599.792422,59.4034688" id="Line" stroke="#979797" stroke-width="2" stroke-linecap="square" stroke-dasharray="14,1,1"></path>
                    <g id="Shape">
                        <use fill="black" fill-opacity="1" filter="url(#filter-12)" xlink:href="#path-11"></use>
                        <use fill="#FFFFFF" fill-rule="evenodd" xlink:href="#path-11"></use>
                    </g>
                </g>
            </g>
        </g>
    </g>
</svg>