<?xml version="1.0" encoding="UTF-8" standalone="no"?>
<svg width="50px" height="59px" viewBox="0 0 50 59" version="1.1" xmlns="http://www.w3.org/2000/svg" xmlns:xlink="http://www.w3.org/1999/xlink">
    <!-- Generator: sketchtool 40.2 (33826) - http://www.bohemiancoding.com/sketch -->
    <title>B601FAEA-83EF-405B-B497-15926F2F6C85</title>
    <desc>Created with sketchtool.</desc>
    <defs></defs>
    <g id="Landing-v2" stroke="none" stroke-width="1" fill="none" fill-rule="evenodd">
        <g id="Landing" transform="translate(-412.000000, -2252.000000)" fill="#EC6737">
            <g id="magento" transform="translate(412.000000, 2252.000000)">
                <path d="M28.2914063,17.6552145 L28.2914063,51.1843498 L24.9841797,53.1995017 L21.6744141,51.1736403 L21.6744141,17.6811122 L13.1044922,22.9416535 L13.1044922,51.6150693 L24.9841797,58.8619439 L36.9644531,51.5634686 L36.9644531,22.9233498 L28.2914063,17.6552145 L28.2914063,17.6552145 L28.2914063,17.6552145 Z M24.9841797,0 L0,15.0911485 L0,43.768264 L6.48886719,47.5793135 L6.48886719,18.8994719 L24.9892578,7.68440924 L43.5068359,18.8831155 L43.5832031,18.926538 L43.575,47.5364752 L50,43.768264 L50,15.0911485 L24.9841797,0 L24.9841797,0 L24.9841797,0 Z" id="Shape"></path>
            </g>
        </g>
    </g>
</svg>